Lab 3 - Team
…
dat %>%
  filter(!happy %in% c("Not applicable", "Don't know", "No answer") & marital != "No answer" & !party %in% c("No answer", "Don't know")) %>%
  group_by(marital, party) %>%
  summarize(perc_happy = sum(happy %in% c("Pretty happy", "Very happy")) / n())

## `summarise()` regrouping output by 'marital' (override with `.groups` argument)

## # A tibble: 40 x 3
## # Groups:   marital [5]
##    marital       party              perc_happy
##    <fct>         <fct>                   <dbl>
##  1 Never married Strong democrat         0.826
##  2 Never married Not str democrat        0.843
##  3 Never married Ind,near dem            0.830
##  4 Never married Independent             0.804
##  5 Never married Ind,near rep            0.844
##  6 Never married Not str republican      0.891
##  7 Never married Strong republican       0.887
##  8 Never married Other party             0.762
##  9 Married       Strong democrat         0.906
## 10 Married       Not str democrat        0.916
## # ... with 30 more rows
…
